coef_estimates
…
Residual standard error: 2.339 on 281 degrees of freedom
  (3 observations deleted due to missingness)
Multiple R-squared:  0.4948,    Adjusted R-squared:  0.4894 
F-statistic: 91.75 on 3 and 281 DF,  p-value: < 2.2e-16

Which words might be causing this disconnect

anti_join(eng_vars |> distinct(object), eng_vars |> filter(!is.na(aoa_understands)) |> distinct(object))

Joining with `by = join_by(object)`

# A tibble: 101 × 1
   object       
   <chr>        
 1 can (object) 
 2 tape (object)
 3 nail (object)
 4 glue (object)
 5 bat (object) 
 6 mop (object) 
 7 crayon       
 8 bucket       
 9 napkin       
10 basket       
# ℹ 91 more rows
…
